offline0: i6pc-------r---- UDP [OR] 2aac:cdf7:d506:7807:9092:75f:a963:f4ab:57587 --> [L] 3f65:ece9:fe71:6e2a:face:b00c:0:358e:443
        : QUIC.netify.facebook
        : H: video.fmct2-3.fna.fbcdn.net
        : SNI: video.fmct2-3.fna.fbcdn.net

